…
merged_df = pols_df |>
  left_join(snp_df) |> 
  left_join(umploy_df)
```

    ## Joining with `by = join_by(year, month)`
    ## Joining with `by = join_by(year, month)`

``` r
(merged_df)
```

    ## # A tibble: 822 × 11
    ##     year month gov_gop sen_gop rep_gop gov_dem sen_dem rep_dem president close
    ##    <dbl> <chr>   <dbl>   <dbl>   <dbl>   <dbl>   <dbl>   <dbl> <chr>     <dbl>
    ##  1  1947 jan        23      51     253      23      45     198 dem          NA
    ##  2  1947 feb        23      51     253      23      45     198 dem          NA
    ##  3  1947 mar        23      51     253      23      45     198 dem          NA
    ##  4  1947 apr        23      51     253      23      45     198 dem          NA
    ##  5  1947 may        23      51     253      23      45     198 dem          NA
    ##  6  1947 jun        23      51     253      23      45     198 dem          NA
    ##  7  1947 jul        23      51     253      23      45     198 dem          NA
    ##  8  1947 aug        23      51     253      23      45     198 dem          NA
    ##  9  1947 sep        23      51     253      23      45     198 dem          NA
    ## 10  1947 oct        23      51     253      23      45     198 dem          NA
    ## # ℹ 812 more rows
    ## # ℹ 1 more variable: umploy <dbl>
…
